<?xml version="1.0" encoding="UTF-8"?>
<svg width="24px" height="28px" viewBox="0 0 24 28" version="1.1" xmlns="http://www.w3.org/2000/svg" xmlns:xlink="http://www.w3.org/1999/xlink">
    <!-- Generator: Sketch 43.1 (39012) - http://www.bohemiancoding.com/sketch -->
    <title>24</title>
    <desc>Created with Sketch.</desc>
    <defs></defs>
    <g id="Page-1" stroke="none" stroke-width="1" fill="none" fill-rule="evenodd">
        <g id="24" fill-rule="nonzero" fill="#CCCCCC">
            <path d="M21.9230769,4.96153846 C20.3076923,4.73076923 19.0384615,4.15384615 17.6538462,3.57692308 C16.0384615,2.88461538 14.4230769,2.07692308 12,2.07692308 L12,2.07692308 L12,2.07692308 L12,2.07692308 C9.57692308,2.07692308 7.96153846,2.88461538 6.34615385,3.57692308 C4.96153846,4.15384615 3.69230769,4.84615385 2.07692308,4.96153846 L2.07692308,13.8461538 C2.07692308,16.2692308 3.11538462,18.4615385 4.73076923,20.4230769 C6.69230769,22.7307692 9.34615385,24.5769231 11.8846154,25.6153846 C14.4230769,24.5769231 17.0769231,22.7307692 19.0384615,20.4230769 C20.6538462,18.4615385 21.6923077,16.2692308 21.6923077,13.8461538 L21.6923077,4.96153846 L21.9230769,4.96153846 Z M18.5769231,1.73076923 C19.9615385,2.42307692 21.3461538,3 22.9615385,3 L22.9615385,4.03846154 L24,4.03846154 L24,13.9615385 C24,16.8461538 22.7307692,19.6153846 20.7692308,21.8076923 C18.4615385,24.4615385 15.3461538,26.5384615 12.4615385,27.6923077 L12.2307692,27.8076923 L12,27.8076923 L12,27.8076923 L11.7692308,27.8076923 L11.5384615,27.6923077 C8.65384615,26.5384615 5.53846154,24.4615385 3.23076923,21.8076923 C1.38461538,19.6153846 0,16.8461538 0,13.9615385 L0,4.03846154 L0,3 L1.03846154,3 C2.65384615,3 4.03846154,2.42307692 5.42307692,1.73076923 C7.15384615,0.923076923 9.11538462,0 11.8846154,0 L11.8846154,0 L11.8846154,0 L11.8846154,0 C14.6538462,0 16.6153846,0.923076923 18.3461538,1.73076923 L18.5769231,1.73076923 Z" id="Shape"></path>
            <path d="M8.07692308,10.9615385 L15.9230769,10.9615385 L16.9615385,10.9615385 L16.9615385,12 L16.9615385,15.4615385 C16.9615385,16.7307692 16.5,17.7692308 15.6923077,18.5769231 C14.8846154,19.3846154 13.7307692,19.8461538 12.5769231,19.8461538 L11.5384615,19.8461538 C10.2692308,19.8461538 9.23076923,19.3846154 8.42307692,18.5769231 C7.61538462,17.7692308 7.15384615,16.6153846 7.15384615,15.4615385 L7.15384615,12 L7.15384615,10.9615385 L8.19230769,10.9615385 L8.07692308,10.9615385 Z M15,12.9230769 L9.11538462,12.9230769 L9.11538462,15.3461538 C9.11538462,16.0384615 9.34615385,16.6153846 9.80769231,17.0769231 C10.2692308,17.5384615 10.8461538,17.7692308 11.5384615,17.7692308 L12.5769231,17.7692308 C13.2692308,17.7692308 13.8461538,17.5384615 14.3076923,17.0769231 C14.7692308,16.6153846 15,16.0384615 15,15.3461538 L15,12.9230769 Z" id="Shape"></path>
            <path d="M10.1538462,10.9615385 L14.0769231,10.9615385 L14.0769231,9.92307692 C14.0769231,9.34615385 13.8461538,8.88461538 13.5,8.53846154 L13.5,8.53846154 C13.1538462,8.19230769 12.6923077,7.96153846 12.1153846,7.96153846 C11.5384615,7.96153846 11.0769231,8.19230769 10.7307692,8.53846154 C10.3846154,8.88461538 10.1538462,9.34615385 10.1538462,9.92307692 L10.1538462,10.9615385 Z M15.1153846,12.9230769 L9.23076923,12.9230769 L8.19230769,12.9230769 L8.19230769,11.8846154 L8.19230769,9.92307692 C8.19230769,8.88461538 8.65384615,7.84615385 9.34615385,7.15384615 C10.0384615,6.46153846 11.0769231,6 12.1153846,6 C13.1538462,6 14.1923077,6.46153846 14.8846154,7.15384615 L14.8846154,7.15384615 C15.5769231,7.84615385 16.0384615,8.88461538 16.0384615,9.92307692 L16.0384615,11.8846154 L16.0384615,12.9230769 L15,12.9230769 L15.1153846,12.9230769 Z" id="Shape"></path>
            <polygon id="Shape" points="13.0384615 13.9615385 13.0384615 15.9230769 11.0769231 15.9230769 11.0769231 13.9615385"></polygon>
        </g>
    </g>
</svg>