<?xml version="1.0" encoding="UTF-8"?>
<svg width="26px" height="22px" viewBox="0 0 26 22" version="1.1" xmlns="http://www.w3.org/2000/svg" xmlns:xlink="http://www.w3.org/1999/xlink">
    <!-- Generator: Sketch 43.1 (39012) - http://www.bohemiancoding.com/sketch -->
    <title>26</title>
    <desc>Created with Sketch.</desc>
    <defs></defs>
    <g id="Page-1" stroke="none" stroke-width="1" fill="none" fill-rule="evenodd">
        <g id="26" fill-rule="nonzero" fill="#CCCCCC">
            <path d="M5.04958678,16.9752066 L8.05785124,16.9752066 L9.02479339,16.9752066 L9.02479339,17.9421488 L9.02479339,20.9504132 L9.02479339,21.9173554 L8.05785124,21.9173554 L5.04958678,21.9173554 L4.08264463,21.9173554 L4.08264463,20.9504132 L4.08264463,17.9421488 L4.08264463,16.9752066 L5.04958678,16.9752066 Z M7.09090909,19.0165289 L6.12396694,19.0165289 L6.12396694,19.9834711 L7.09090909,19.9834711 L7.09090909,19.0165289 Z" id="Shape"></path>
            <path d="M19.9834711,19.0165289 L19.0165289,19.0165289 L19.0165289,19.9834711 L19.9834711,19.9834711 L19.9834711,19.0165289 Z M17.9421488,16.9752066 L20.9504132,16.9752066 L21.9173554,16.9752066 L21.9173554,17.9421488 L21.9173554,20.9504132 L21.9173554,21.9173554 L20.9504132,21.9173554 L17.9421488,21.9173554 L16.9752066,21.9173554 L16.9752066,20.9504132 L16.9752066,17.9421488 L16.9752066,16.9752066 L17.9421488,16.9752066 Z" id="Shape"></path>
            <path d="M6.98347107,0 L19.0165289,0 C20.0909091,0 21.1652893,0.429752066 21.8099174,1.18181818 C22.5619835,1.9338843 22.9917355,2.90082645 22.9917355,3.97520661 L22.9917355,17.9421488 L22.9917355,18.9090909 L22.0247934,18.9090909 L3.97520661,18.9090909 L3.00826446,18.9090909 L3.00826446,17.9421488 L3.00826446,3.97520661 C3.00826446,2.90082645 3.43801653,1.82644628 4.19008264,1.18181818 C4.94214876,0.429752066 5.90909091,0 6.98347107,0 Z M19.0165289,2.04132231 L6.98347107,2.04132231 C6.44628099,2.04132231 5.90909091,2.25619835 5.58677686,2.5785124 C5.26446281,2.90082645 5.04958678,3.43801653 5.04958678,3.97520661 L5.04958678,16.9752066 L21.0578512,16.9752066 L21.0578512,3.97520661 C21.0578512,3.43801653 20.8429752,2.90082645 20.5206612,2.5785124 C20.1983471,2.25619835 19.661157,2.04132231 19.1239669,2.04132231 L19.0165289,2.04132231 Z" id="Shape"></path>
            <polygon id="Shape" points="5.04958678 13.9669421 9.02479339 13.9669421 9.02479339 16.0082645 5.04958678 16.0082645"></polygon>
            <polygon id="Shape" points="21.0578512 16.0082645 16.9752066 16.0082645 16.9752066 13.9669421 21.0578512 13.9669421"></polygon>
            <polygon id="Shape" points="22.0247934 13 3.97520661 13 3.97520661 10.9586777 22.0247934 10.9586777"></polygon>
            <polygon id="Shape" points="22.0247934 5.04958678 3.97520661 5.04958678 3.97520661 3.00826446 22.0247934 3.00826446"></polygon>
            <polygon id="Shape" points="3.97520661 6.98347107 2.04132231 6.98347107 2.04132231 9.99173554 0 9.99173554 0 6.01652893 0 5.04958678 0.966942149 5.04958678 3.97520661 5.04958678"></polygon>
            <polygon id="Shape" points="22.0247934 5.04958678 25.0330579 5.04958678 26 5.04958678 26 6.01652893 26 9.99173554 23.9586777 9.99173554 23.9586777 6.98347107 22.0247934 6.98347107"></polygon>
        </g>
    </g>
</svg>