<?xml version="1.0" encoding="UTF-8"?>
<svg width="35px" height="35px" viewBox="0 0 35 35" version="1.1" xmlns="http://www.w3.org/2000/svg" xmlns:xlink="http://www.w3.org/1999/xlink">
    <!-- Generator: Sketch 43.1 (39012) - http://www.bohemiancoding.com/sketch -->
    <title>01</title>
    <desc>Created with Sketch.</desc>
    <defs></defs>
    <g id="Page-1" stroke="none" stroke-width="1" fill="none" fill-rule="evenodd">
        <g id="01">
            <circle id="Oval" fill="#E6E6E6" cx="17.5" cy="17.5" r="17.5"></circle>
            <path d="M18.5372005,10.5044136 C16.9041614,10.5044136 15.4035309,11.1664565 14.3221942,12.2477932 C13.2408575,13.3291299 12.5788146,14.8076923 12.5788146,16.4627995 C12.5788146,18.0958386 13.2408575,19.5964691 14.3221942,20.6778058 C15.4035309,21.7591425 16.8820933,22.4211854 18.5372005,22.4211854 C20.1702396,22.4211854 21.6708701,21.7591425 22.7522068,20.6778058 C23.8335435,19.5964691 24.4955864,18.1179067 24.4955864,16.4627995 C24.4955864,14.8297604 23.8335435,13.3291299 22.7522068,12.2477932 C21.6708701,11.1664565 20.1923077,10.5044136 18.5372005,10.5044136 Z M13.8366961,11.7622951 C15.0504414,10.5485498 16.7055485,9.82030265 18.5372005,9.82030265 C20.3688525,9.82030265 22.0239596,10.5706179 23.2377049,11.7622951 C24.4514502,12.9760404 25.1796974,14.6311475 25.1796974,16.4627995 C25.1796974,18.2944515 24.4293821,19.9495586 23.2377049,21.1633039 C22.0239596,22.3770492 20.3688525,23.1052963 18.5372005,23.1052963 C16.7055485,23.1052963 15.0504414,22.3549811 13.8366961,21.1633039 C12.6229508,19.9495586 11.8947037,18.2944515 11.8947037,16.4627995 C11.8947037,14.6311475 12.6450189,12.9760404 13.8366961,11.7622951 Z" id="Shape" fill="#B3B3B3" fill-rule="nonzero"></path>
            <path d="M10.5044136,24.4955864 L13.9911728,20.9867591" id="Shape"></path>
            <polygon id="Shape" fill="#B3B3B3" fill-rule="nonzero" points="10.2395965 24.2528373 13.7484237 20.7440101 14.2339218 21.2515763 10.7471627 24.7383354"></polygon>
            <path d="M18.5372005,12.6008827 C17.4779319,12.6008827 16.5069357,13.0422446 15.8228247,13.7263556 C15.1166456,14.4325347 14.6973518,15.3814628 14.6973518,16.4407314 L13.9911728,16.4407314 C13.9911728,15.1828499 14.498739,14.057377 15.3152585,13.2187894 C16.1317781,12.4022699 17.279319,11.8947037 18.5372005,11.8947037 L18.5372005,12.6008827 Z" id="Shape" fill="#B3B3B3" fill-rule="nonzero"></path>
        </g>
    </g>
</svg>