<?xml version="1.0" encoding="UTF-8"?>
<!DOCTYPE svg PUBLIC "-//W3C//DTD SVG 1.1//EN" "http://www.w3.org/Graphics/SVG/1.1/DTD/svg11.dtd">
<!-- Creator: CorelDRAW X5 -->
<svg xmlns="http://www.w3.org/2000/svg" xml:space="preserve" width="105.833mm" height="111.462mm" style="shape-rendering:geometricPrecision; text-rendering:geometricPrecision; image-rendering:optimizeQuality; fill-rule:evenodd; clip-rule:evenodd"
viewBox="0 0 10696 11265"
 xmlns:xlink="http://www.w3.org/1999/xlink">
 <defs>
  <style type="text/css">
   <![CDATA[
    .fil3 {fill:#00783C}
    .fil0 {fill:#0275A9}
    .fil1 {fill:#0B94D6}
    .fil2 {fill:#2A8B23}
   ]]>
  </style>
 </defs>
 <g id="Layer_x0020_1">
  <metadata id="CorelCorpID_0Corel-Layer"/>
  <g id="_379103312">
   <path class="fil0" d="M8939 0c86,699 -812,983 -1182,1446 -38,92 -17,168 34,178 45,7 116,-51 151,-31l10 182c-75,-7 -161,-31 -271,-27 -178,41 -394,-31 -514,-106 -695,158 -973,538 -1898,469 391,-110 572,-130 918,-343 288,-175 692,-367 1240,-322 343,-641 1196,-774 1511,-1446z"/>
   <path class="fil1" d="M6757 2864c-970,620 -1531,-510 -2426,-524 -466,-7 -822,473 -1312,524 -805,89 -1158,-562 -1744,-870 473,-353 1035,-576 1590,-576 880,0 1312,161 1843,500 31,24 62,45 93,69 466,363 726,665 1346,798 192,41 394,69 610,79z"/>
   <path class="fil0" d="M1148 2093c476,260 1018,911 1699,970 610,55 983,-586 1559,-531 699,69 1281,778 2021,726 449,-31 877,-493 1312,-524 486,-31 843,254 1322,415 356,123 1059,267 1439,209 45,110 82,216 113,319 -445,-48 -1004,-58 -1494,-116 -425,-48 -874,-274 -1285,-216 -600,82 -836,613 -1734,507 -603,-72 -1117,-709 -1641,-713 -517,0 -973,493 -1377,514 -788,45 -1052,-644 -1703,-719 -415,-51 -719,264 -1107,260 72,-140 158,-288 264,-439 168,-243 373,-466 610,-661z"/>
   <path class="fil1" d="M8244 3656c-99,14 -178,34 -254,58 -713,178 -1329,493 -1850,857 -456,-48 -839,-541 -1285,-521 -449,24 -737,538 -1220,600 -846,106 -1435,-363 -2080,-185 -552,151 -737,743 -1322,819 -274,-627 -339,-1247 -21,-1956 408,-3 761,-319 1168,-264 678,93 743,617 1562,702 538,55 959,-493 1453,-507 589,51 1268,798 2032,723 613,-7 973,-391 1504,-483 175,-31 397,62 620,106 -103,14 -206,31 -308,51z"/>
   <path class="fil2" d="M8891 7565c-164,188 -319,356 -452,507 -1525,-935 -4368,-490 -6307,-168 1473,-401 2470,-1723 3512,-2741 1089,-959 2785,-1823 5012,-1305 168,850 -209,1593 -767,2426 -274,408 -613,836 -997,1281z"/>
   <path class="fil1" d="M5438 5153c-58,41 -116,79 -182,116 -459,233 -572,69 -994,24 -432,-45 -901,17 -1179,394 -212,288 -154,942 -658,911 -562,-34 -925,-377 -1439,-58 -62,-89 -120,-175 -178,-257 -212,-319 -401,-624 -541,-925 576,-17 822,-613 1326,-743 483,-123 1250,247 1949,216 497,-24 802,-538 1247,-586 435,-48 935,332 1189,442 -140,106 -274,216 -401,325 -48,45 -96,93 -140,140z"/>
   <path class="fil3" d="M7980 8575c-1353,199 -2576,593 -3577,1734 -764,-774 -1521,-1538 -2179,-2271 1949,-353 4519,-716 6136,123 -123,137 -250,274 -380,415z"/>
   <path class="fil2" d="M4458 10364c757,-781 1895,-1483 3361,-1620 -778,822 -1641,1672 -2474,2522 -291,-301 -589,-603 -887,-901z"/>
   <path class="fil0" d="M3197 7229c-171,110 -349,209 -531,301 -192,89 -394,168 -600,223l-82 14c-349,-394 -665,-778 -935,-1148 565,-336 997,257 1535,144 493,-106 305,-887 877,-1192 428,-230 880,-79 1182,-62 281,14 418,-27 510,-69 -606,630 -1223,1309 -1956,1788z"/>
  </g>
 </g>
</svg>
